module gitlab.com/gokulk94/aspire-api

go 1.18

require (
	github.com/go-chi/chi/v5 v5.0.7
	github.com/go-chi/jwtauth/v5 v5.0.2
	github.com/lib/pq v1.10.5
	github.com/spf13/viper v1.11.0
	github.com/stretchr/testify v1.7.1
)

require (
	github.com/davecgh/go-spew v1.1.1 // indirect
	github.com/decred/dcrd/dcrec/secp256k1/v4 v4.0.0-20210816181553-5444fa50b93d // indirect
	github.com/fsnotify/fsnotify v1.5.1 // indirect
	github.com/goccy/go-json v0.7.6 // indirect
	github.com/hashicorp/hcl v1.0.0 // indirect
	github.com/kr/pretty v0.3.0 // indirect
	github.com/lestrrat-go/backoff/v2 v2.0.8 // indirect
	github.com/lestrrat-go/blackmagic v1.0.0 // indirect
	github.com/lestrrat-go/httpcc v1.0.0 // indirect
	github.com/lestrrat-go/iter v1.0.1 // indirect
	github.com/lestrrat-go/jwx v1.2.6 // indirect
	github.com/lestrrat-go/option v1.0.0 // indirect
	github.com/magiconair/properties v1.8.6 // indirect
	github.com/mitchellh/mapstructure v1.4.3 // indirect
	github.com/pelletier/go-toml v1.9.4 // indirect
	github.com/pelletier/go-toml/v2 v2.0.0-beta.8 // indirect
	github.com/pkg/errors v0.9.1 // indirect
	github.com/pmezard/go-difflib v1.0.0 // indirect
	github.com/rogpeppe/go-internal v1.8.0 // indirect
	github.com/spf13/afero v1.8.2 // indirect
	github.com/spf13/cast v1.4.1 // indirect
	github.com/spf13/jwalterweatherman v1.1.0 // indirect
	github.com/spf13/pflag v1.0.5 // indirect
	github.com/stretchr/objx v0.1.0 // indirect
	github.com/subosito/gotenv v1.2.0 // indirect
	golang.org/x/crypto v0.0.0-20220411220226-7b82a4e95df4 // indirect
	golang.org/x/sys v0.0.0-20220412211240-33da011f77ad // indirect
	golang.org/x/text v0.3.7 // indirect
	gopkg.in/check.v1 v1.0.0-20201130134442-10cb98267c6c // indirect
	gopkg.in/ini.v1 v1.66.4 // indirect
	gopkg.in/yaml.v2 v2.4.0 // indirect
	gopkg.in/yaml.v3 v3.0.0-20210107192922-496545a6307b // indirect
)
