{
	"info": {
		"_postman_id": "0fed532d-ede3-49a9-bb2c-eea9b80a45ae",
		"name": "Customer aspire-api",
		"schema": "https://schema.getpostman.com/json/collection/v2.1.0/collection.json"
	},
	"item": [
		{
			"name": "Post new loan",
			"request": {
				"method": "POST",
				"header": [],
				"body": {
					"mode": "raw",
					"raw": "{\n    \"loan_amount\": 10000,\n    \"loan_term\": 13\n}",
					"options": {
						"raw": {
							"language": "json"
						}
					}
				},
				"url": {
					"raw": "localhost:8080/v1/customer/loan",
					"host": [
						"localhost"
					],
					"port": "8080",
					"path": [
						"v1",
						"customer",
						"loan"
					]
				}
			},
			"response": []
		},
		{
			"name": "Get loan list",
			"request": {
				"method": "GET",
				"header": [],
				"url": {
					"raw": "localhost:8080/v1/customer/loan",
					"host": [
						"localhost"
					],
					"port": "8080",
					"path": [
						"v1",
						"customer",
						"loan"
					]
				}
			},
			"response": []
		},
		{
			"name": "Post a payment",
			"request": {
				"method": "POST",
				"header": [],
				"body": {
					"mode": "raw",
					"raw": "{\n    \"loan_id\": 2,\n    \"amount_paid\": 769\n}",
					"options": {
						"raw": {
							"language": "json"
						}
					}
				},
				"url": {
					"raw": "localhost:8080/v1/customer/loan/payment",
					"host": [
						"localhost"
					],
					"port": "8080",
					"path": [
						"v1",
						"customer",
						"loan",
						"payment"
					]
				}
			},
			"response": []
		}
	],
	"auth": {
		"type": "bearer",
		"bearer": [
			{
				"key": "token",
				"value": "eyJhbGciOiJIUzI1NiIsInR5cCI6IkpXVCJ9.eyJjdXN0b21lcl9pZCI6MX0.MHJlCibhF93jN73yX_5JReYqPEs2rN8Ird9CiUpIL-0",
				"type": "string"
			}
		]
	},
	"event": [
		{
			"listen": "prerequest",
			"script": {
				"type": "text/javascript",
				"exec": [
					""
				]
			}
		},
		{
			"listen": "test",
			"script": {
				"type": "text/javascript",
				"exec": [
					""
				]
			}
		}
	]
}