{
  "server": {
    "address": ":8080"
  },
  "context": {
    "timeout_seconds": 60
  },
  "database": {
    "host": "db",
    "port": "5432",
    "user": "aspire",
    "pass": "aspirepass",
    "name": "aspiredb",
    "setting": {
      "max_idle_conn": 10,
      "max_open_conn": 40,
      "conn_max_lifetime": 3
    }
  }
}